<?xml version="1.0" encoding="UTF-8" standalone="no"?>
<!-- Created with Inkscape (http://www.inkscape.org/) -->

<svg
   width="700"
   height="224"
   viewBox="0 0 700 224"
   version="1.1"
   id="svg8"
   sodipodi:docname="patreon.svg"
   inkscape:version="1.2 (dc2aedaf03, 2022-05-15)"
   xml:space="preserve"
   xmlns:inkscape="http://www.inkscape.org/namespaces/inkscape"
   xmlns:sodipodi="http://sodipodi.sourceforge.net/DTD/sodipodi-0.dtd"
   xmlns="http://www.w3.org/2000/svg"
   xmlns:svg="http://www.w3.org/2000/svg"
   xmlns:rdf="http://www.w3.org/1999/02/22-rdf-syntax-ns#"
   xmlns:cc="http://creativecommons.org/ns#"
   xmlns:dc="http://purl.org/dc/elements/1.1/"><defs
     id="defs2" /><sodipodi:namedview
     id="base"
     pagecolor="#555555"
     bordercolor="#666666"
     borderopacity="1.0"
     inkscape:pageopacity="0"
     inkscape:pageshadow="2"
     inkscape:zoom="0.7"
     inkscape:cx="38.571429"
     inkscape:cy="470"
     inkscape:document-units="px"
     inkscape:current-layer="layer1"
     showgrid="false"
     units="px"
     inkscape:window-width="1920"
     inkscape:window-height="1017"
     inkscape:window-x="1912"
     inkscape:window-y="-8"
     inkscape:window-maximized="1"
     inkscape:showpageshadow="0"
     inkscape:pagecheckerboard="1"
     inkscape:deskcolor="#3b3b3b" /><metadata
     id="metadata5"><rdf:RDF><cc:Work
         rdf:about=""><dc:format>image/svg+xml</dc:format><dc:type
           rdf:resource="http://purl.org/dc/dcmitype/StillImage" /></cc:Work></rdf:RDF></metadata><g
     inkscape:label="Layer 1"
     inkscape:groupmode="layer"
     id="layer1"
     transform="translate(0,-32.416667)"><path
       style="fill:#000000;stroke-width:0.999997"
       d="M 51.280547,144.41667 V 81.918034 H 62.698564 74.11659 V 144.41667 206.9153 H 62.698564 51.280547 Z m 78.293133,30.91525 c -24.0011,-2.72754 -41.636442,-22.44044 -41.635037,-46.53991 0.0017,-33.121121 33.160707,-55.682579 63.972277,-43.527159 32.94064,12.995358 39.80316,57.140309 12.3968,79.745639 -9.51116,7.845 -22.51709,11.70979 -34.73404,10.32143 z"
       id="path317" /><path
       id="path292"
       style="font-size:91.2415px;line-height:1.25;font-family:triforce;-inkscape-font-specification:triforce;letter-spacing:0px;word-spacing:0px"
       d="M 285.06055 47.016276 C 281.77586 47.016276 278.73362 47.442034 275.93555 48.29362 C 273.1983 49.084379 270.82567 50.210711 268.81836 51.670573 C 266.81105 53.069609 265.22994 54.741668 264.07422 56.688151 C 262.97935 58.573807 262.46264 60.611639 262.52344 62.801433 C 262.58426 65.903641 263.31386 68.702032 264.71289 71.195964 C 266.11193 73.629068 267.84592 75.908794 269.91406 78.037761 C 272.04303 80.105899 274.29374 82.083746 276.66602 83.969401 C 279.09912 85.79423 281.3808 87.588213 283.50977 89.352214 C 284.84798 90.507939 286.39811 91.96712 288.16211 93.73112 C 289.92611 95.434293 291.56915 97.259246 293.08984 99.205729 C 294.67136 101.09139 296.00862 103.00729 297.10352 104.95378 C 298.19841 106.83943 298.74609 108.6044 298.74609 110.24675 C 298.74609 112.67985 298.47323 114.68671 297.92578 116.26823 C 297.37834 117.84975 296.58681 119.12702 295.55273 120.10026 C 294.51866 121.13433 293.30138 121.92586 291.90234 122.47331 C 290.50331 123.02076 288.95318 123.47748 287.25 123.84245 C 285.42518 124.20741 283.72214 124.2674 282.14062 124.02409 C 280.55911 123.8416 279.15991 123.53777 277.94336 123.11198 C 276.54433 122.62536 275.29802 121.98672 274.20312 121.19596 L 258.7832 106.50651 L 265.16992 124.57096 C 266.14316 125.48338 267.54236 126.2749 269.36719 126.94401 C 270.94871 127.55228 273.04653 128.09997 275.66211 128.58659 C 278.2777 129.13401 281.5928 129.37786 285.60742 129.31706 C 287.43225 129.31706 289.65199 129.10418 292.26758 128.67839 C 294.88316 128.31342 297.40869 127.52189 299.8418 126.30534 C 302.2749 125.08879 304.34175 123.35479 306.04492 121.10417 C 307.80895 118.85355 308.7224 115.87325 308.7832 112.16276 C 308.7832 110.39876 308.63031 108.54284 308.32617 106.59635 C 308.08286 104.58904 307.4152 102.46025 306.32031 100.20964 C 305.28624 97.898184 303.76512 95.434598 301.75781 92.819011 C 299.81133 90.203424 297.16388 87.345047 293.81836 84.242839 C 290.83781 81.444769 287.88847 78.768301 284.96875 76.213542 C 282.04902 73.658783 279.64737 71.195194 277.76172 68.822917 C 275.87606 66.450641 274.7807 64.168961 274.47656 61.979167 C 274.17243 59.728545 275.17488 57.508805 277.48633 55.319011 C 278.64205 54.284942 280.16317 53.646306 282.04883 53.402995 C 283.99531 53.159686 285.91122 53.128716 287.79688 53.311198 C 289.98667 53.554509 292.26835 53.951249 294.64062 54.498698 L 308.875 67.545573 L 304.12891 51.305339 C 302.91235 50.51458 301.39318 49.78499 299.56836 49.115886 C 297.98684 48.568438 295.97803 48.080742 293.54492 47.654948 C 291.17264 47.229155 288.34524 47.016276 285.06055 47.016276 z M 428.76562 56.141276 C 425.72424 56.141276 422.86586 57.083746 420.18945 58.969401 C 417.57386 60.79423 415.38314 63.317804 413.61914 66.541667 C 412.2201 69.096426 411.21569 71.954803 410.60742 75.117839 C 410.05998 78.220046 409.78711 81.53515 409.78711 85.063151 C 409.78711 89.016946 410.12192 92.788775 410.79102 96.377604 C 411.46012 99.905604 412.67741 102.94785 414.44141 105.5026 C 416.20541 108.17902 418.36321 110.21685 420.91797 111.61589 C 423.47273 113.01492 426.08921 113.71354 428.76562 113.71354 C 431.44204 113.71354 433.96561 113.16586 436.33789 112.07096 C 438.71017 110.97607 440.748 109.06016 442.45117 106.32292 C 443.24193 105.04554 443.97152 103.58636 444.64062 101.94401 C 445.30973 100.30166 445.85741 98.567667 446.2832 96.742839 C 446.76982 94.857183 447.1356 92.941275 447.37891 90.994792 C 447.62222 88.987481 447.74414 87.009635 447.74414 85.063151 C 447.74414 81.717633 447.4403 78.524454 446.83203 75.483073 C 446.22375 72.380865 445.3103 69.644412 444.09375 67.272136 C 442.32975 63.804962 440.11001 61.097525 437.43359 59.151042 C 434.75718 57.143731 431.86783 56.141276 428.76562 56.141276 z M 308.23633 57.508464 L 312.43359 61.158854 L 312.43359 96.742839 C 312.31194 99.723389 312.7377 102.39986 313.71094 104.77214 C 314.0759 105.80621 314.59261 106.81062 315.26172 107.78385 C 315.93082 108.69627 316.75137 109.51681 317.72461 110.24675 C 318.75868 110.97668 319.97596 111.58434 321.375 112.07096 C 322.77403 112.49676 324.41512 112.70964 326.30078 112.70964 C 328.18644 112.70964 329.79851 112.49676 331.13672 112.07096 C 332.53575 111.58434 333.72207 110.97668 334.69531 110.24675 C 335.72938 109.51681 336.58089 108.69627 337.25 107.78385 C 337.91911 106.81062 338.43581 105.83718 338.80078 104.86393 C 339.71317 102.55249 340.13892 99.936003 340.07812 97.016276 L 340.07812 60.977214 L 343.72852 57.508464 L 330.22461 57.508464 L 333.60156 61.067058 L 333.60156 97.473308 C 333.60156 99.358964 333.4177 101.06199 333.05273 102.58268 C 332.74859 103.86006 332.1719 105.01541 331.32031 106.04948 C 330.52955 107.08355 329.31227 107.60026 327.66992 107.60026 C 326.27089 107.60026 325.23747 107.11452 324.56836 106.14128 C 323.89926 105.16803 323.41156 104.07267 323.10742 102.85612 C 322.80328 101.45709 322.65234 99.845013 322.65234 98.020183 L 322.65234 60.977214 L 326.30078 57.508464 L 308.23633 57.508464 z M 345.82617 57.508464 L 350.93555 61.615886 L 350.93555 109.0612 L 344.82422 112.70964 L 366.08203 112.70964 L 360.06055 109.0612 L 360.06055 86.158854 C 360.91213 86.219681 361.94556 86.219681 363.16211 86.158854 C 364.43949 86.098027 365.74773 85.945134 367.08594 85.701823 C 368.48497 85.397685 369.88416 84.942912 371.2832 84.334636 C 372.68224 83.665532 373.89952 82.752079 374.93359 81.596354 C 376.02849 80.44063 376.90902 78.981449 377.57812 77.217448 C 378.24726 75.453448 378.55305 73.293692 378.49219 70.738933 C 378.43136 67.819208 377.76175 65.508512 376.48438 63.805339 C 375.26782 62.041338 373.83766 60.702128 372.19531 59.789714 C 370.55297 58.877299 368.88091 58.269633 367.17773 57.965495 C 365.47456 57.661357 364.16633 57.508464 363.25391 57.508464 L 345.82617 57.508464 z M 376.21094 57.508464 L 381.32031 61.615886 L 381.32031 109.0612 L 375.20703 112.70964 L 396.4668 112.70964 L 390.44336 109.0612 L 390.44336 86.158854 C 391.29495 86.219681 392.33032 86.219681 393.54688 86.158854 C 394.82425 86.098027 396.13054 85.945134 397.46875 85.701823 C 398.86778 85.397685 400.26698 84.942912 401.66602 84.334636 C 403.06505 83.665532 404.28233 82.752079 405.31641 81.596354 C 406.4113 80.44063 407.29378 78.981449 407.96289 77.217448 C 408.63203 75.453448 408.93587 73.293692 408.875 70.738933 C 408.81417 67.819208 408.14457 65.508512 406.86719 63.805339 C 405.65064 62.041338 404.22242 60.702128 402.58008 59.789714 C 400.93773 58.877299 399.26372 58.269633 397.56055 57.965495 C 395.85738 57.661357 394.54914 57.508464 393.63672 57.508464 L 376.21094 57.508464 z M 445.09766 57.508464 L 450.20703 61.615886 L 450.20703 109.0612 L 444.09375 112.70964 L 465.35352 112.70964 L 459.33203 109.0612 L 459.33203 88.805339 L 470.91992 112.70964 L 484.9707 112.70964 L 480.13477 108.9694 L 467.72461 85.885417 C 468.45454 85.885417 469.39896 85.6106 470.55469 85.063151 C 471.77124 84.515703 472.89562 83.664189 473.92969 82.508464 C 475.02459 81.291912 475.93804 79.741776 476.66797 77.85612 C 477.4587 75.909637 477.82252 73.537002 477.76172 70.738933 C 477.70089 67.819208 477.03129 65.508512 475.75391 63.805339 C 474.53735 62.041338 473.10914 60.702128 471.4668 59.789714 C 469.82445 58.877299 468.15044 58.269633 466.44727 57.965495 C 464.74409 57.661357 463.4378 57.508464 462.52539 57.508464 L 445.09766 57.508464 z M 480.04297 57.508464 L 480.04297 76.578776 L 486.06445 61.705729 L 490.90039 61.705729 L 490.90039 109.15104 L 486.79492 112.70964 L 505.22656 112.70964 L 501.21094 108.9694 L 501.21094 61.705729 L 505.5 61.705729 L 511.79492 76.760417 L 511.79492 57.508464 L 480.04297 57.508464 z M 539.80664 57.508464 L 544.36914 61.340495 L 544.36914 108.8776 L 539.80664 112.70964 L 554.49609 112.70964 L 550.57227 108.69596 L 550.57227 73.020183 L 564.07617 112.70964 L 578.03711 73.020183 L 578.03711 109.0612 L 573.20117 112.70964 L 592.54297 112.70964 L 588.16406 109.0612 L 588.16406 61.340495 L 592.9082 57.508464 L 579.03906 57.508464 L 566.35742 89.078776 L 554.67773 57.508464 L 539.80664 57.508464 z M 594.36914 57.508464 L 598.38281 61.067058 L 598.38281 109.24284 L 594.36914 112.70964 L 626.39453 112.70964 L 626.39453 87.893229 L 620.09961 108.51237 L 608.875 108.51237 L 608.875 86.432292 L 615.53711 86.432292 L 619.73438 92.545573 L 619.73438 76.031901 L 615.35352 82.600261 L 608.875 82.600261 L 608.875 60.520183 L 619.73438 60.520183 L 626.39453 77.033854 L 626.39453 57.508464 L 594.36914 57.508464 z M 268.08984 58.422526 C 268.27232 59.274113 268.51422 60.245598 268.81836 61.340495 C 269.18333 62.374565 269.58007 63.409942 270.00586 64.444011 C 270.49248 65.47808 271.00919 66.451519 271.55664 67.363933 C 272.10409 68.276347 272.6208 69.036907 273.10742 69.645183 C 273.83735 70.435941 274.7508 71.378411 275.8457 72.473308 C 277.00142 73.507377 278.39866 74.631756 280.04102 75.848308 L 282.41406 80.410808 L 277.48633 80.319011 C 276.81723 79.83239 276.14957 79.193754 275.48047 78.402995 C 274.81136 77.612236 274.17273 76.791691 273.56445 75.940104 C 272.95617 75.088518 272.40849 74.237003 271.92188 73.385417 C 271.43526 72.533831 271.06948 71.80424 270.82617 71.195964 C 270.15707 69.736101 269.54941 67.880179 269.00195 65.629558 C 268.45448 63.318109 268.15064 60.916459 268.08984 58.422526 z M 428.58203 60.154948 C 429.92024 60.154948 431.13752 60.793584 432.23242 62.070964 C 433.38814 63.348344 434.39255 65.113312 435.24414 67.363933 C 436.09573 69.614554 436.76338 72.260052 437.25 75.301433 C 437.73662 78.281985 437.98047 81.53515 437.98047 85.063151 C 437.98047 88.530325 437.73662 91.785443 437.25 94.826823 C 436.76338 97.807376 436.09573 100.39289 435.24414 102.58268 C 434.45339 104.77247 433.47994 106.50648 432.32422 107.78385 C 431.22932 109.06123 430.01203 109.69987 428.67383 109.69987 C 427.39645 109.69987 426.15015 109.06123 424.93359 107.78385 C 423.77787 106.50648 422.74445 104.77247 421.83203 102.58268 C 420.98045 100.39289 420.27987 97.807376 419.73242 94.826823 C 419.2458 91.785443 419.00195 88.530325 419.00195 85.063151 C 419.00195 81.53515 419.2458 78.281985 419.73242 75.301433 C 420.27987 72.260052 420.98045 69.614554 421.83203 67.363933 C 422.68362 65.113312 423.68608 63.348344 424.8418 62.070964 C 426.05835 60.793584 427.30465 60.154948 428.58203 60.154948 z M 360.24219 60.977214 C 362.12785 61.038042 363.86184 61.401861 365.44336 62.070964 C 366.78156 62.67924 367.99885 63.683647 369.09375 65.082683 C 370.24948 66.42089 370.88811 68.427752 371.00977 71.104167 C 371.07059 72.624857 370.94866 73.962114 370.64453 75.117839 C 370.40122 76.212736 370.03545 77.186174 369.54883 78.037761 C 369.06221 78.828519 368.48551 79.498124 367.81641 80.045573 C 367.1473 80.532194 366.47769 80.926982 365.80859 81.23112 C 364.22708 81.961051 362.37116 82.295853 360.24219 82.235026 L 360.24219 60.977214 z M 390.62695 60.977214 C 392.51261 61.038042 394.24661 61.401861 395.82812 62.070964 C 397.16633 62.67924 398.38166 63.683647 399.47656 65.082683 C 400.63229 66.42089 401.27092 68.427752 401.39258 71.104167 C 401.4534 72.624857 401.33148 73.962114 401.02734 75.117839 C 400.78403 76.212736 400.42021 77.186174 399.93359 78.037761 C 399.44697 78.828519 398.86832 79.498124 398.19922 80.045573 C 397.53011 80.532194 396.86051 80.926982 396.19141 81.23112 C 394.60989 81.961051 392.75592 82.295853 390.62695 82.235026 L 390.62695 60.977214 z M 459.51367 60.977214 C 461.39932 61.038042 463.13333 61.401861 464.71484 62.070964 C 466.05306 62.67924 467.26839 63.683647 468.36328 65.082683 C 469.51901 66.42089 470.15764 68.427752 470.2793 71.104167 C 470.34013 72.624857 470.22016 73.962114 469.91602 75.117839 C 469.6727 76.212736 469.30693 77.186174 468.82031 78.037761 C 468.33369 78.828519 467.75504 79.498124 467.08594 80.045573 C 466.41684 80.532194 465.74918 80.926982 465.08008 81.23112 C 463.49856 81.961051 461.64264 82.295853 459.51367 82.235026 L 459.51367 60.977214 z M 285.88086 83.604167 L 290.16992 84.242839 L 290.99023 88.531901 L 286.61133 87.893229 L 285.88086 83.604167 z M 293.45508 91.176433 L 298.19922 92.545573 C 299.23329 93.762125 300.20673 95.405169 301.11914 97.473308 C 302.09239 99.480617 302.82197 101.51845 303.30859 103.58659 C 303.79521 105.71556 304.16098 107.96627 304.4043 110.33854 C 304.6476 112.71082 304.49471 115.11247 303.94727 117.54557 C 303.94727 116.69399 303.85631 115.69153 303.67383 114.53581 C 303.55217 113.44092 303.3393 112.31458 303.03516 111.15885 C 302.79185 109.9423 302.45704 108.75599 302.03125 107.60026 C 301.60546 106.38371 301.14874 105.25933 300.66211 104.22526 C 299.62804 102.27878 298.62559 100.75766 297.65234 99.662761 C 296.73993 98.507036 295.73552 97.380705 294.64062 96.285808 L 293.45508 91.176433 z M 361.79492 162.89323 L 371.83008 168.73307 L 371.83008 236.16081 L 361.88477 241.81706 L 392.45117 241.81706 L 382.41406 236.16081 L 382.41406 203.86003 C 383.63061 203.92083 385.21367 203.92083 387.16016 203.86003 C 389.16747 203.7992 391.26529 203.5573 393.45508 203.13151 C 395.7057 202.70572 397.95641 202.03611 400.20703 201.1237 C 402.45766 200.21129 404.46452 198.93402 406.22852 197.29167 C 408.05335 195.64932 409.51253 193.58052 410.60742 191.08659 C 411.76315 188.59266 412.28181 185.5214 412.16016 181.87175 C 412.09933 179.07367 411.58067 176.67007 410.60742 174.66276 C 409.63418 172.65545 408.38788 170.95242 406.86719 169.55339 C 405.40733 168.15435 403.76624 167.02997 401.94141 166.17839 C 400.11658 165.3268 398.29163 164.65719 396.4668 164.17057 C 394.7028 163.68395 393.05975 163.34915 391.53906 163.16667 C 390.01837 162.98419 388.83205 162.89323 387.98047 162.89323 L 361.79492 162.89323 z M 382.50586 167.82096 C 386.27717 167.82096 389.68323 168.33767 392.72461 169.37175 C 394.00199 169.79754 395.25024 170.37424 396.4668 171.10417 C 397.74418 171.77327 398.86855 172.62478 399.8418 173.65885 C 400.87586 174.69292 401.69641 175.94118 402.30469 177.40104 C 402.97379 178.80007 403.37053 180.44117 403.49219 182.32682 C 403.55301 184.51661 403.30917 186.43253 402.76172 188.07487 C 402.21427 189.65639 401.45371 191.05558 400.48047 192.27214 C 399.56805 193.42786 398.47269 194.4013 397.19531 195.19206 C 395.91793 195.98282 394.61164 196.62145 393.27344 197.10807 C 390.1104 198.2638 386.52048 198.84245 382.50586 198.84245 L 382.50586 167.82096 z M 377.12305 169.73698 L 379.85938 190.81315 L 377.03125 195.19206 L 374.29492 190.81315 L 377.12305 169.73698 z M 280.40625 170.19206 C 277.36487 170.19206 274.5065 171.13452 271.83008 173.02018 C 269.21449 174.84501 267.02377 177.37054 265.25977 180.5944 C 263.86073 183.14916 262.85828 186.00754 262.25 189.17057 C 261.70255 192.27278 261.42773 195.58789 261.42773 199.11589 C 261.42773 203.06968 261.76253 206.84151 262.43164 210.43034 C 263.10074 213.95834 264.31803 216.99863 266.08203 219.55339 C 267.84603 222.2298 270.00579 224.26764 272.56055 225.66667 C 275.11531 227.06571 277.72984 227.76628 280.40625 227.76628 C 283.08267 227.76628 285.60819 227.2186 287.98047 226.1237 C 290.35274 225.0288 292.39057 223.1129 294.09375 220.37565 C 294.88451 219.09827 295.6141 217.63714 296.2832 215.99479 C 296.95231 214.35245 297.49999 212.6204 297.92578 210.79557 C 298.4124 208.90992 298.77622 206.99401 299.01953 205.04753 C 299.26284 203.04022 299.38477 201.06237 299.38477 199.11589 C 299.38477 195.77037 299.08093 192.57718 298.47266 189.53581 C 297.86438 186.4336 296.95288 183.69519 295.73633 181.32292 C 293.97233 177.85575 291.75064 175.15026 289.07422 173.20378 C 286.39781 171.19647 283.50846 170.19206 280.40625 170.19206 z M 568.91211 170.19206 C 565.87073 170.19206 563.01235 171.13452 560.33594 173.02018 C 557.72035 174.84501 555.52962 177.37054 553.76562 180.5944 C 552.36659 183.14916 551.36413 186.00754 550.75586 189.17057 C 550.20841 192.27278 549.93359 195.58789 549.93359 199.11589 C 549.93359 203.06968 550.26839 206.84151 550.9375 210.43034 C 551.60661 213.95834 552.82389 216.99863 554.58789 219.55339 C 556.35189 222.2298 558.51164 224.26764 561.06641 225.66667 C 563.62116 227.06571 566.2357 227.76628 568.91211 227.76628 C 571.58853 227.76628 574.11405 227.2186 576.48633 226.1237 C 578.85861 225.0288 580.89448 223.1129 582.59766 220.37565 C 583.38842 219.09827 584.11996 217.63714 584.78906 215.99479 C 585.45816 214.35245 586.00585 212.6204 586.43164 210.79557 C 586.91826 208.90992 587.28208 206.99401 587.52539 205.04753 C 587.7687 203.04022 587.89063 201.06237 587.89062 199.11589 C 587.89063 195.77037 587.5868 192.57718 586.97852 189.53581 C 586.37024 186.4336 585.45679 183.69519 584.24023 181.32292 C 582.47623 177.85575 580.25649 175.15026 577.58008 173.20378 C 574.90366 171.19647 572.01432 170.19206 568.91211 170.19206 z M 413.80273 171.4694 L 419.55078 176.0319 L 406.86719 222.01823 L 400.48047 226.76237 L 417.45117 226.76237 L 412.61523 222.38346 L 416.35742 207.78385 L 427.76172 207.78385 L 430.68164 222.01823 L 426.57617 226.76237 L 447.37891 226.76237 L 442.08594 222.74675 L 428.03516 171.4694 L 413.80273 171.4694 z M 297.28711 171.5612 L 301.84766 175.39323 L 301.84766 222.93034 L 297.28711 226.76237 L 311.97656 226.76237 L 308.05273 222.74675 L 308.05273 193.0944 L 324.75 226.76237 L 330.68164 226.76237 L 330.68164 174.29753 L 333.59961 171.5612 L 320.91797 171.5612 L 324.75 174.66276 L 324.75 202.85612 L 308.05273 171.5612 L 297.28711 171.5612 z M 440.80859 171.5612 L 440.80859 190.62956 L 446.83203 175.75846 L 451.66797 175.75846 L 451.66797 223.20378 L 447.56055 226.76237 L 465.99219 226.76237 L 461.97656 223.02214 L 461.97656 175.75846 L 466.26562 175.75846 L 472.56055 190.81315 L 472.56055 171.5612 L 440.80859 171.5612 z M 474.20312 171.5612 L 479.3125 175.66667 L 479.3125 223.11198 L 473.19922 226.76237 L 494.45898 226.76237 L 488.4375 223.11198 L 488.4375 202.85612 L 500.02539 226.76237 L 514.07617 226.76237 L 509.24023 223.02214 L 496.83203 199.9362 C 497.56196 199.9362 498.50443 199.66334 499.66016 199.11589 C 500.87671 198.56844 502.00108 197.71692 503.03516 196.5612 C 504.13006 195.34465 505.04351 193.79255 505.77344 191.9069 C 506.56417 189.96042 506.92799 187.58974 506.86719 184.79167 C 506.80636 181.87194 506.13871 179.5593 504.86133 177.85612 C 503.64478 176.09212 502.21461 174.75486 500.57227 173.84245 C 498.92992 172.93004 497.25786 172.32042 495.55469 172.01628 C 493.85151 171.71214 492.54327 171.5612 491.63086 171.5612 L 474.20312 171.5612 z M 515.81055 171.5612 L 519.82422 175.11979 L 519.82422 223.29557 L 515.81055 226.76237 L 547.83594 226.76237 L 547.83594 201.94401 L 541.53906 222.5651 L 530.31641 222.5651 L 530.31641 200.48503 L 536.97852 200.48503 L 541.17578 206.59831 L 541.17578 190.08268 L 536.79492 196.653 L 530.31641 196.653 L 530.31641 174.57292 L 541.17578 174.57292 L 547.83594 191.08659 L 547.83594 171.5612 L 515.81055 171.5612 z M 585.79102 171.5612 L 590.35352 175.39323 L 590.35352 222.93034 L 585.79102 226.76237 L 600.48242 226.76237 L 596.55859 222.74675 L 596.55859 193.0944 L 613.25586 226.76237 L 619.18555 226.76237 L 619.18555 174.29753 L 622.10547 171.5612 L 609.42383 171.5612 L 613.25586 174.66276 L 613.25586 202.85612 L 596.55859 171.5612 L 585.79102 171.5612 z M 280.22461 174.20768 C 281.56281 174.20768 282.77815 174.84631 283.87305 176.1237 C 285.02877 177.40108 286.03318 179.1641 286.88477 181.41471 C 287.73635 183.66534 288.40596 186.31084 288.89258 189.35221 C 289.3792 192.33277 289.62305 195.58789 289.62305 199.11589 C 289.62305 202.58306 289.3792 205.83817 288.89258 208.87956 C 288.40596 211.86011 287.73635 214.44367 286.88477 216.63346 C 286.09401 218.82326 285.12057 220.55726 283.96484 221.83464 C 282.86994 223.11201 281.65461 223.75065 280.31641 223.75065 C 279.03903 223.75065 277.79077 223.11201 276.57422 221.83464 C 275.41849 220.55726 274.38507 218.82326 273.47266 216.63346 C 272.62107 214.44367 271.9205 211.86011 271.37305 208.87956 C 270.88643 205.83817 270.64453 202.58306 270.64453 199.11589 C 270.64453 195.58789 270.88643 192.33277 271.37305 189.35221 C 271.9205 186.31084 272.62107 183.66534 273.47266 181.41471 C 274.32424 179.1641 275.32865 177.40108 276.48438 176.1237 C 277.70093 174.84631 278.94723 174.20768 280.22461 174.20768 z M 568.73047 174.20768 C 570.06867 174.20768 571.28401 174.84631 572.37891 176.1237 C 573.53463 177.40108 574.53904 179.1641 575.39062 181.41471 C 576.24221 183.66534 576.91182 186.31084 577.39844 189.35221 C 577.88506 192.33277 578.12695 195.58789 578.12695 199.11589 C 578.12695 202.58306 577.88506 205.83817 577.39844 208.87956 C 576.91182 211.86011 576.24221 214.44367 575.39062 216.63346 C 574.59987 218.82326 573.62643 220.55726 572.4707 221.83464 C 571.37581 223.11201 570.15852 223.75065 568.82031 223.75065 C 567.54293 223.75065 566.29663 223.11201 565.08008 221.83464 C 563.92435 220.55726 562.89093 218.82326 561.97852 216.63346 C 561.12693 214.44367 560.42635 211.86011 559.87891 208.87956 C 559.39228 205.83817 559.15039 202.58306 559.15039 199.11589 C 559.15039 195.58789 559.39228 192.33277 559.87891 189.35221 C 560.42635 186.31084 561.12693 183.66534 561.97852 181.41471 C 562.8301 179.1641 563.83256 177.40108 564.98828 176.1237 C 566.20483 174.84631 567.45309 174.20768 568.73047 174.20768 z M 488.61914 175.028 C 490.5048 175.08882 492.23879 175.45459 493.82031 176.1237 C 495.15852 176.73197 496.3758 177.73443 497.4707 179.13346 C 498.62643 180.47167 499.26507 182.48049 499.38672 185.1569 C 499.44755 186.67759 499.32562 188.01485 499.02148 189.17057 C 498.77818 190.26547 498.41241 191.23891 497.92578 192.0905 C 497.43916 192.88125 496.86246 193.55086 496.19336 194.09831 C 495.52425 194.58493 494.85465 194.97971 494.18555 195.28385 C 492.60403 196.01376 490.74811 196.34856 488.61914 196.28776 L 488.61914 175.028 z M 407.50586 175.9401 L 410.60742 182.69206 L 407.68945 189.99089 L 405.13477 182.69206 L 407.50586 175.9401 z M 422.01367 185.0651 L 426.84961 204.40885 L 417.26953 204.40885 L 422.01367 185.0651 z M 377.03125 198.29557 L 379.85938 201.76237 L 377.03125 205.32096 L 374.38477 201.76237 L 377.03125 198.29557 z M 377.21484 208.78776 L 379.85938 213.07682 L 377.12305 234.69987 L 374.47656 213.07682 L 377.21484 208.78776 z " /></g></svg>
