{
    "items": {
        "type": "vbox",
        "items": [
            {
                "type": "panel",
                "name": "itemgrid",
                "options": {
                    "grid": "items"
                }
            },
            {
                "type": "panel",
                "name": "dungeon-status",
                "options": {
                    "activetypesoption": "dungeonstate_active_types",
                    "orientation": "row",
                    "active": [
                        "key",
                        "bosskey"
                    ]
                }
            }
        ]
    },
    "items-essentials": {
        "type": "hbox",
        "items": [
            {
                "type": "panel",
                "name": "itemgrid",
                "options": {
                    "grid": "essentials"
                }
            },
            {
                "type": "panel",
                "name": "dungeon-status",
                "options": {
                    "activetypesoption": "dungeonstate_active_types",
                    "orientation": "column",
                    "active": [
                        "reward"
                    ]
                }
            }
        ]
    },
    "items-race": {
        "type": "panel",
        "name": "itemgrid",
        "options": {
            "grid": "race"
        }
    },
    "race": {
        "type": "vbox",
        "items": [
            {
                "type": "panel",
                "name": "itemgrid",
                "options": {
                    "grid": "race"
                }
            },
            {
                "type": "panel",
                "name": "dungeon-status",
                "options": {
                    "activetypesoption": "dungeonstate_active_types",
                    "orientation": "column",
                    "active": [
                        "key",
                        "bosskey"
                    ]
                }
            }
        ]
    },
    "items-dt": {
        "type": "vbox",
        "items": [
            {
                "type": "panel",
                "name": "itemgrid",
                "options": {
                    "grid": "items"
                }
            },
            {
                "type": "panel",
                "name": "dungeon-status",
                "options": {
                    "activetypesoption": "dungeonstate_active_types",
                    "orientation": "row",
                    "active": [
                        "key",
                        "bosskey",
                        "type"
                    ]
                }
            }
        ]
    },
    "items-list": {
        "type": "vbox",
        "items": [
            {
                "type": "panel",
                "name": "itemgrid",
                "options": {
                    "grid": "items"
                }
            },
            {
                "type": "panel",
                "name": "dungeon-status",
                "options": {
                    "activetypesoption": "dungeonstate_active_types",
                    "orientation": "row",
                    "active": [
                        "key",
                        "bosskey"
                    ]
                }
            },
            {
                "type": "panel",
                "name": "worldlist"
            }
        ]
    },
    "items-list-dt": {
        "type": "vbox",
        "items": [
            {
                "type": "panel",
                "name": "itemgrid",
                "options": {
                    "grid": "items"
                }
            },
            {
                "type": "panel",
                "name": "dungeon-status",
                "options": {
                    "activetypesoption": "dungeonstate_active_types",
                    "orientation": "row",
                    "active": [
                        "key",
                        "bosskey",
                        "type"
                    ]
                }
            },
            {
                "type": "panel",
                "name": "worldlist"
            }
        ]
    },
    "map-right": {
        "type": "hbox",
        "items": [
            {
                "type": "vbox",
                "items": [
                    {
                        "type": "panel",
                        "name": "itemgrid",
                        "options": {
                            "grid": "items"
                        }
                    },
                    {
                        "type": "panel",
                        "name": "dungeon-status",
                        "options": {
                            "activetypesoption": "dungeonstate_active_types",
                            "orientation": "row",
                            "active": [
                                "key",
                                "bosskey"
                            ]
                        }
                    },
                    {
                        "type": "panel",
                        "name": "worldlist"
                    }
                ]
            },
            {
                "type": "panel",
                "name": "worldmap"
            }
        ]
    },
    "map-right-dt": {
        "type": "hbox",
        "items": [
            {
                "type": "vbox",
                "items": [
                    {
                        "type": "panel",
                        "name": "itemgrid",
                        "options": {
                            "grid": "items"
                        }
                    },
                    {
                        "type": "panel",
                        "name": "dungeon-status",
                        "options": {
                            "activetypesoption": "dungeonstate_active_types",
                            "orientation": "row",
                            "active": [
                                "key",
                                "bosskey",
                                "type"
                            ]
                        }
                    },
                    {
                        "type": "panel",
                        "name": "worldlist"
                    }
                ]
            },
            {
                "type": "panel",
                "name": "worldmap"
            }
        ]
    },
    "map-right-dtr": {
        "type": "hbox",
        "items": [
            {
                "type": "vbox",
                "items": [
                    {
                        "type": "panel",
                        "name": "itemgrid",
                        "options": {
                            "grid": "items"
                        }
                    },
                    {
                        "type": "panel",
                        "name": "dungeon-status",
                        "options": {
                            "activetypesoption": "dungeonstate_active_types",
                            "orientation": "row",
                            "active": [
                                "reward",
                                "type"
                            ]
                        }
                    },
                    {
                        "type": "panel",
                        "name": "worldlist"
                    }
                ]
            },
            {
                "type": "panel",
                "name": "worldmap"
            }
        ]
    },
    "map-center": {
        "type": "hbox",
        "items": [
            {
                "type": "vbox",
                "items": [
                    {
                        "type": "panel",
                        "name": "itemgrid",
                        "options": {
                            "grid": "items"
                        }
                    },
                    {
                        "type": "panel",
                        "name": "dungeon-status",
                        "options": {
                            "activetypesoption": "dungeonstate_active_types",
                            "orientation": "column",
                            "active": [
                                "key",
                                "bosskey",
                                "silver_rupees",
                                "reward",
                                "type"
                            ]
                        }
                    }
                ]
            },
            {
                "type": "panel",
                "name": "worldmap",
                "autosize": true
            },
            {
                "type": "panel",
                "name": "worldlist"
            }
        ]
    },
    "map-compact": {
        "type": "hbox",
        "items": [
            {
                "type": "vbox",
                "items": [
                    {
                        "type": "panel",
                        "name": "itemgrid",
                        "options": {
                            "grid": "items"
                        }
                    },
                    {
                        "type": "panel",
                        "name": "worldlist"
                    }
                ]
            },
            {
                "type": "vbox",
                "items": [
                    {
                        "type": "panel",
                        "name": "dungeon-status",
                        "options": {
                            "activetypesoption": "dungeonstate_active_types",
                            "orientation": "row",
                            "active": [
                                "key",
                                "bosskey",
                                "silver_rupees",
                                "reward",
                                "type"
                            ]
                        }
                    },
                    {
                        "type": "panel",
                        "name": "worldmap"
                    }
                ]
            }
        ]
    },
    "compact": {
        "type": "hbox",
        "items": [
            {
                "type": "vbox",
                "items": [
                    {
                        "type": "panel",
                        "name": "itemgrid",
                        "options": {
                            "grid": "items"
                        }
                    },
                    {
                        "type": "panel",
                        "name": "dungeon-status",
                        "options": {
                            "activetypesoption": "dungeonstate_active_types",
                            "orientation": "row",
                            "active": [
                                "key",
                                "bosskey",
                                "silver_rupees",
                                "reward",
                                "type"
                            ]
                        }
                    }
                ]
            },
            {
                "type": "panel",
                "name": "worldlist"
            }
        ]
    },
    "flat": {
        "type": "hbox",
        "items": [
            {
                "type": "panel",
                "name": "itemgrid",
                "options": {
                    "grid": "items"
                }
            },
            {
                "type": "panel",
                "name": "dungeon-status",
                "options": {
                    "activetypesoption": "dungeonstate_active_types",
                    "orientation": "row",
                    "active": [
                        "key",
                        "bosskey",
                        "silver_rupees",
                        "reward",
                        "type"
                    ]
                }
            },
            {
                "type": "panel",
                "name": "worldlist"
            }
        ]
    },
    "essential-map": {
        "type": "hbox",
        "items": [
            {
                "type": "vbox",
                "items": [
                    {
                        "type": "hbox",
                        "items": [
                            {
                                "type": "panel",
                                "name": "itemgrid",
                                "options": {
                                    "grid": "essentials"
                                }
                            },
                            {
                                "type": "panel",
                                "name": "dungeon-status",
                                "options": {
                                    "activetypesoption": "dungeonstate_active_types",
                                    "orientation": "column",
                                    "active": [
                                        "reward"
                                    ]
                                }
                            }
                        ]
                    },
                    {
                        "type": "panel",
                        "name": "worldlist"
                    }
                ]
            },
            {
                "type": "panel",
                "name": "worldmap"
            }
        ]
    },
    "essential-map-key": {
        "type": "hbox",
        "items": [
            {
                "type": "vbox",
                "items": [
                    {
                        "type": "hbox",
                        "items": [
                            {
                                "type": "panel",
                                "name": "itemgrid",
                                "options": {
                                    "grid": "essentials"
                                }
                            },
                            {
                                "type": "panel",
                                "name": "dungeon-status",
                                "options": {
                                    "activetypesoption": "dungeonstate_active_types",
                                    "orientation": "column",
                                    "active": [
                                        "reward",
                                        "key"
                                    ]
                                }
                            }
                        ]
                    },
                    {
                        "type": "panel",
                        "name": "worldlist"
                    }
                ]
            },
            {
                "type": "panel",
                "name": "worldmap"
            }
        ]
    },
    "standard-essential-map": {
        "type": "hbox",
        "items": [
            {
                "type": "vbox",
                "items": [
                    {
                        "type": "hbox",
                        "items": [
                            {
                                "type": "panel",
                                "name": "itemgrid",
                                "options": {
                                    "grid": "standard-essentials"
                                }
                            },
                            {
                                "type": "panel",
                                "name": "dungeon-status",
                                "options": {
                                    "activetypesoption": "dungeonstate_active_types",
                                    "orientation": "column",
                                    "active": [
                                        "reward"
                                    ]
                                }
                            }
                        ]
                    },
                    {
                        "type": "panel",
                        "name": "worldlist"
                    }
                ]
            },
            {
                "type": "panel",
                "name": "worldmap"
            }
        ]
    }
}