{
    "kokiri": [
        {
            "ref": "kokiri.kokiri_shop_8",
            "item": "heart_1",
            "price": 10
        },
        {
            "ref": "kokiri.kokiri_shop_6",
            "item": "arrows_10",
            "price": 20
        },
        {
            "ref": "kokiri.kokiri_shop_2",
            "item": "nuts_5",
            "price": 15
        },
        {
            "ref": "kokiri.kokiri_shop_4",
            "item": "stick_1",
            "price": 10
        },
        {
            "ref": "kokiri.kokiri_shop_7",
            "item": "arrows_30",
            "price": 60
        },
        {
            "ref": "kokiri.kokiri_shop_5",
            "item": "seeds_30",
            "price": 30
        },
        {
            "ref": "kokiri.kokiri_shop_1",
            "item": "shield_kokiri_1",
            "price": 40
        },
        {
            "ref": "kokiri.kokiri_shop_3",
            "item": "nuts_10",
            "price": 30
        }
    ],
    "goron": [
        {
            "ref": "goron.goron_shop_8",
            "item": "heart_1",
            "price": 10
        },
        {
            "ref": "goron.goron_shop_6",
            "item": "heart_1",
            "price": 10
        },
        {
            "ref": "goron.goron_shop_2",
            "item": "bombs_10",
            "price": 50
        },
        {
            "ref": "goron.goron_shop_4",
            "item": "bombs_30",
            "price": 120
        },
        {
            "ref": "goron.goron_shop_7",
            "item": "potion_red_1_2",
            "price": 40
        },
        {
            "ref": "goron.goron_shop_5",
            "item": "tunic_fire_1",
            "price": 200
        },
        {
            "ref": "goron.goron_shop_1",
            "item": "bombs_5",
            "price": 25
        },
        {
            "ref": "goron.goron_shop_3",
            "item": "bombs_20",
            "price": 80
        }
    ],
    "zora": [
        {
            "ref": "zoras.zoras_shop_8",
            "item": "potion_red_1_3",
            "price": 50
        },
        {
            "ref": "zoras.zoras_shop_6",
            "item": "arrows_50",
            "price": 90
        },
        {
            "ref": "zoras.zoras_shop_2",
            "item": "arrows_10",
            "price": 20
        },
        {
            "ref": "zoras.zoras_shop_4",
            "item": "arrows_30",
            "price": 60
        },
        {
            "ref": "zoras.zoras_shop_7",
            "item": "fish_1",
            "price": 200
        },
        {
            "ref": "zoras.zoras_shop_5",
            "item": "nuts_5",
            "price": 15
        },
        {
            "ref": "zoras.zoras_shop_1",
            "item": "tunic_water_1",
            "price": 300
        },
        {
            "ref": "zoras.zoras_shop_3",
            "item": "heart_1",
            "price": 10
        }
    ],
    "bombchu": [
        {
            "ref": "castle_town.shop_bombchu_8",
            "item": "bombchu_20",
            "price": 180
        },
        {
            "ref": "castle_town.shop_bombchu_6",
            "item": "bombchu_20",
            "price": 180
        },
        {
            "ref": "castle_town.shop_bombchu_2",
            "item": "bombchu_10",
            "price": 99
        },
        {
            "ref": "castle_town.shop_bombchu_4",
            "item": "bombchu_10",
            "price": 99
        },
        {
            "ref": "castle_town.shop_bombchu_7",
            "item": "bombchu_20",
            "price": 180
        },
        {
            "ref": "castle_town.shop_bombchu_5",
            "item": "bombchu_20",
            "price": 180
        },
        {
            "ref": "castle_town.shop_bombchu_1",
            "item": "bombchu_5",
            "price": 60
        },
        {
            "ref": "castle_town.shop_bombchu_3",
            "item": "bombchu_10",
            "price": 99
        }
    ],
    "basar_child": [
        {
            "ref": "castle_town.shop_bazaar_8",
            "item": "arrows_30",
            "price": 60
        },
        {
            "ref": "castle_town.shop_bazaar_6",
            "item": "arrows_50",
            "price": 90
        },
        {
            "ref": "castle_town.shop_bazaar_2",
            "item": "bombs_5_2",
            "price": 35
        },
        {
            "ref": "castle_town.shop_bazaar_4",
            "item": "heart_1",
            "price": 10
        },
        {
            "ref": "castle_town.shop_bazaar_7",
            "item": "stick_1",
            "price": 10
        },
        {
            "ref": "castle_town.shop_bazaar_5",
            "item": "arrows_10",
            "price": 20
        },
        {
            "ref": "castle_town.shop_bazaar_1",
            "item": "shield_hylia_1",
            "price": 80
        },
        {
            "ref": "castle_town.shop_bazaar_3",
            "item": "nuts_5",
            "price": 15
        }
    ],
    "magic_child": [
        {
            "ref": "castle_town.shop_magic_8",
            "item": "bugs_1",
            "price": 50
        },
        {
            "ref": "castle_town.shop_magic_6",
            "item": "fish_1",
            "price": 200
        },
        {
            "ref": "castle_town.shop_magic_2",
            "item": "potion_green_1",
            "price": 30
        },
        {
            "ref": "castle_town.shop_magic_4",
            "item": "potion_red_1",
            "price": 30
        },
        {
            "ref": "castle_town.shop_magic_7",
            "item": "poe_1",
            "price": 30
        },
        {
            "ref": "castle_town.shop_magic_5",
            "item": "nuts_5",
            "price": 15
        },
        {
            "ref": "castle_town.shop_magic_1",
            "item": "fairy_spirit_1",
            "price": 50
        },
        {
            "ref": "castle_town.shop_magic_3",
            "item": "blue_fire_1",
            "price": 300
        }
    ],
    "basar_adult": [
        {
            "ref": "kakariko.shop_bazaar_8",
            "item": "arrows_30",
            "price": 60
        },
        {
            "ref": "kakariko.shop_bazaar_6",
            "item": "arrows_50",
            "price": 90
        },
        {
            "ref": "kakariko.shop_bazaar_2",
            "item": "bombs_5",
            "price": 35
        },
        {
            "ref": "kakariko.shop_bazaar_4",
            "item": "heart_1",
            "price": 10
        },
        {
            "ref": "kakariko.shop_bazaar_7",
            "item": "stick_1",
            "price": 10
        },
        {
            "ref": "kakariko.shop_bazaar_5",
            "item": "arrows_10",
            "price": 20
        },
        {
            "ref": "kakariko.shop_bazaar_1",
            "item": "shield_hylia_1",
            "price": 80
        },
        {
            "ref": "kakariko.shop_bazaar_3",
            "item": "nuts_5",
            "price": 15
        }
    ],
    "magic_adult": [
        {
            "ref": "kakariko.shop_magic_8",
            "item": "bugs_1",
            "price": 50
        },
        {
            "ref": "kakariko.shop_magic_6",
            "item": "fish_1",
            "price": 200
        },
        {
            "ref": "kakariko.shop_magic_2",
            "item": "potion_green_1",
            "price": 30
        },
        {
            "ref": "kakariko.shop_magic_4",
            "item": "potion_red_1",
            "price": 30
        },
        {
            "ref": "kakariko.shop_magic_7",
            "item": "poe_1",
            "price": 30
        },
        {
            "ref": "kakariko.shop_magic_5",
            "item": "nuts_5",
            "price": 15
        },
        {
            "ref": "kakariko.shop_magic_1",
            "item": "fairy_spirit_1",
            "price": 50
        },
        {
            "ref": "kakariko.shop_magic_3",
            "item": "blue_fire_1",
            "price": 300
        }
    ]
}