<?xml version="1.0" encoding="UTF-8" standalone="no"?>
<!-- Created with Inkscape (http://www.inkscape.org/) -->

<svg
   width="1000"
   height="1000"
   viewBox="0 0 264.58333 264.58334"
   version="1.1"
   id="svg1492"
   inkscape:version="1.2 (dc2aedaf03, 2022-05-15)"
   sodipodi:docname="dungeonstate.svg"
   xml:space="preserve"
   xmlns:inkscape="http://www.inkscape.org/namespaces/inkscape"
   xmlns:sodipodi="http://sodipodi.sourceforge.net/DTD/sodipodi-0.dtd"
   xmlns="http://www.w3.org/2000/svg"
   xmlns:svg="http://www.w3.org/2000/svg"
   xmlns:rdf="http://www.w3.org/1999/02/22-rdf-syntax-ns#"
   xmlns:cc="http://creativecommons.org/ns#"
   xmlns:dc="http://purl.org/dc/elements/1.1/"><defs
     id="defs1486"><inkscape:path-effect
       effect="mirror_symmetry"
       start_point="167.26844,52.269732"
       end_point="97.314894,173.43283"
       center_point="132.29167,112.85128"
       id="path-effect831"
       is_visible="true"
       mode="free"
       discard_orig_path="false"
       fuse_paths="true"
       oposite_fuse="false" /></defs><sodipodi:namedview
     id="base"
     pagecolor="#ffffff"
     bordercolor="#666666"
     borderopacity="1.0"
     inkscape:pageopacity="0.0"
     inkscape:pageshadow="2"
     inkscape:zoom="0.035974058"
     inkscape:cx="-9034.2881"
     inkscape:cy="-7005.048"
     inkscape:document-units="px"
     inkscape:current-layer="svg1492"
     showgrid="false"
     units="px"
     inkscape:window-width="1920"
     inkscape:window-height="1017"
     inkscape:window-x="1912"
     inkscape:window-y="-8"
     inkscape:window-maximized="1"
     inkscape:showpageshadow="0"
     inkscape:pagecheckerboard="1"
     inkscape:deskcolor="#d1d1d1" /><metadata
     id="metadata1489"><rdf:RDF><cc:Work
         rdf:about=""><dc:format>image/svg+xml</dc:format><dc:type
           rdf:resource="http://purl.org/dc/dcmitype/StillImage" /></cc:Work></rdf:RDF></metadata><g
     inkscape:label="Ebene 1"
     id="layer1"
     transform="matrix(0.63516867,-0.39686188,0.39686188,0.63516867,-14.273028,83.586326)"
     style="stroke-width:1.09457;stroke-dasharray:none"><path
       style="opacity:1;fill:#d3bd34;fill-opacity:1;fill-rule:nonzero;stroke:none;stroke-width:18.8139;stroke-linecap:round;stroke-linejoin:round;stroke-miterlimit:4;stroke-dasharray:none;stroke-opacity:1"
       d="M 265.20898,34.039062 C 96.439456,33.280586 -27.16962,236.58957 271.03125,399.20898 v 36.99219 l 160.2793,92.53711 v 509.64842 h 137.3789 V 1000 h 79.82813 V 791.9082 H 568.68945 V 528.73828 l 160.2793,-92.53711 V 399.20898 C 1063.7908,216.61873 866.83923,-17.269529 671.26758,44.003906 882.04956,101.29607 776.8275,183.63187 728.96875,188.80078 V 171.80859 L 500,39.613281 271.03125,171.80859 v 16.99219 c -47.85872,-5.1689 -153.08083,-87.50277 57.70117,-144.794921 -21.39065,-6.701781 -42.79735,-9.87365 -63.52344,-9.966797 z"
       transform="matrix(0.26458333,0,0,0.26458333,0,32.41665)"
       id="path812"
       inkscape:connector-curvature="0" /><path
       id="path826"
       style="opacity:1;fill:#cd2f2f;stroke-width:2.93939;stroke-linecap:round;stroke-linejoin:round"
       d="m 168.06447,133.50472 -35.7728,20.65343 -35.772797,-20.65344 10e-7,-41.306865 35.772796,-20.653434 35.7728,20.653435 z" /></g><path
     style="fill:#b4b4b4;fill-opacity:1;fill-rule:nonzero;stroke:none;stroke-width:3.5465;stroke-linecap:round;stroke-linejoin:round;stroke-miterlimit:4;stroke-dasharray:none;stroke-opacity:1"
     d="m 218.56081,32.230926 -25.62889,29.39577 9.55326,18.825821 -40.32461,46.251423 12.77678,11.13951 3.09809,-3.5534 7.59548,6.62217 19.57778,-22.45529 -7.59548,-6.62219 17.64873,-20.242709 19.95231,6.898782 25.62889,-29.395779 z m 2.32843,19.595298 20.22343,17.63194 -10.7744,12.358002 -13.62922,-4.78103 -6.59422,-12.850899 z"
     id="path831"
     inkscape:connector-curvature="0"
     sodipodi:nodetypes="ccccccccccccccccccc" /><g
     inkscape:label="Blue Rupee"
     id="g1093"
     transform="matrix(0.36533672,0.47001514,-0.44390486,0.34504153,118.4702,114.43144)"
     style="stroke-width:1.72873;stroke-dasharray:none"
     inkscape:transform-center-x="-10.401311"
     inkscape:transform-center-y="41.605243"><path
       style="color:#000000;display:none;fill:#000000;stroke-width:1.72873;stroke-linecap:round;stroke-miterlimit:6;-inkscape-stroke:none;paint-order:markers stroke fill"
       d="M 82.853516,43.492187 11.798828,93.599609 V 223.41211 l 71.054688,50.10742 3.322265,-2.34375 67.732419,-47.76367 V 93.599609 Z m 0,14.105469 59.527344,41.978516 V 217.43555 L 82.853516,259.41211 23.326172,217.43555 V 99.576172 Z"
       id="path1077"
       inkscape:label="contour" /><path
       id="path1079"
       style="fill:#bebebe;fill-opacity:1;stroke-width:1.72873;stroke-linecap:round;stroke-linejoin:round;stroke-miterlimit:6;stroke-dasharray:none;paint-order:markers stroke fill"
       inkscape:transform-center-x="1.3940106e-06"
       d="m 82.853565,266.4665 -65.29178,-46.04303 -2e-6,-123.836074 65.291779,-46.043041 65.291768,46.043041 1e-5,123.836074 z"
       sodipodi:nodetypes="ccccccc"
       inkscape:label="background" /><path
       style="fill:#ffffff;fill-opacity:0.567084;stroke:none;stroke-width:1.72873;stroke-linecap:butt;stroke-linejoin:miter;stroke-dasharray:none;stroke-opacity:1"
       d="M 17.561783,96.587394 44.2134,118.67154 82.85356,93.307479 V 50.544355 Z"
       id="path1081"
       sodipodi:nodetypes="ccccc"
       inkscape:label="top left" /><path
       style="fill:#000000;fill-opacity:0.266547;stroke:none;stroke-width:1.72873;stroke-linecap:butt;stroke-linejoin:miter;stroke-dasharray:none;stroke-opacity:1"
       d="M 82.85356,93.307477 121.49371,118.67154 148.14533,96.587394 82.85356,50.544355 Z"
       id="path1083"
       sodipodi:nodetypes="ccccc"
       inkscape:label="top right" /><path
       style="fill:#000000;fill-opacity:0.169946;stroke:none;stroke-width:1.72873;stroke-linecap:butt;stroke-linejoin:miter;stroke-dasharray:none;stroke-opacity:1"
       d="m 121.49371,118.67154 26.65162,-22.084148 1e-5,123.836078 -26.65162,-22.08415 z"
       id="path1085"
       sodipodi:nodetypes="ccccc"
       inkscape:label="right" /><path
       style="fill:#ffffff;fill-opacity:0.16458;stroke:none;stroke-width:1.72873;stroke-linecap:butt;stroke-linejoin:miter;stroke-dasharray:none;stroke-opacity:1"
       d="m 82.853562,223.70337 v 42.76312 l 65.291778,-46.04302 -26.65162,-22.08415 z"
       id="path1087"
       sodipodi:nodetypes="ccccc"
       inkscape:label="bottom right" /><path
       style="fill:#000000;fill-opacity:0.250447;stroke:none;stroke-width:1.72873;stroke-linecap:butt;stroke-linejoin:miter;stroke-dasharray:none;stroke-opacity:1"
       d="m 44.213403,198.33932 38.640159,25.36405 v 42.76312 L 17.561785,220.42347 Z"
       id="path1089"
       sodipodi:nodetypes="ccccc"
       inkscape:label="bottom left" /><path
       style="fill:#ffffff;fill-opacity:0.289803;stroke:none;stroke-width:1.72873;stroke-linecap:butt;stroke-linejoin:miter;stroke-dasharray:none;stroke-opacity:1"
       d="M 44.213403,198.33932 17.561785,220.42347 17.561783,96.587394 44.2134,118.67154 Z"
       id="path1091"
       sodipodi:nodetypes="ccccc"
       inkscape:label="left" /></g></svg>
