<?xml version="1.0" encoding="UTF-8" standalone="no"?>
<!-- Created with Inkscape (http://www.inkscape.org/) -->

<svg
   xmlns:dc="http://purl.org/dc/elements/1.1/"
   xmlns:cc="http://creativecommons.org/ns#"
   xmlns:rdf="http://www.w3.org/1999/02/22-rdf-syntax-ns#"
   xmlns:svg="http://www.w3.org/2000/svg"
   xmlns="http://www.w3.org/2000/svg"
   xmlns:xlink="http://www.w3.org/1999/xlink"
   xmlns:sodipodi="http://sodipodi.sourceforge.net/DTD/sodipodi-0.dtd"
   xmlns:inkscape="http://www.inkscape.org/namespaces/inkscape"
   width="1000"
   height="1000"
   viewBox="0 0 264.58333 264.58334"
   version="1.1"
   id="svg8"
   inkscape:version="0.92.4 (5da689c313, 2019-01-14)"
   sodipodi:docname="time_never.svg">
  <defs
     id="defs2">
    <inkscape:path-effect
       effect="copy_rotate"
       starting_point="138.1503,164.70831"
       origin="132.29167,164.70831"
       id="path-effect824"
       is_visible="true"
       copies_to_360="true"
       fuse_paths="false"
       starting_angle="0"
       rotation_angle="45"
       num_copies="8" />
    <inkscape:path-effect
       num_copies="8"
       rotation_angle="45"
       starting_angle="0"
       fuse_paths="false"
       copies_to_360="true"
       is_visible="true"
       id="path-effect824-0"
       origin="132.29167,164.70831"
       starting_point="138.1503,164.70831"
       effect="copy_rotate" />
    <inkscape:path-effect
       num_copies="8"
       rotation_angle="45"
       starting_angle="0"
       fuse_paths="false"
       copies_to_360="true"
       is_visible="true"
       id="path-effect824-1"
       origin="132.29167,164.70831"
       starting_point="138.1503,164.70831"
       effect="copy_rotate" />
    <inkscape:path-effect
       num_copies="8"
       rotation_angle="45"
       starting_angle="0"
       fuse_paths="false"
       copies_to_360="true"
       is_visible="true"
       id="path-effect824-2"
       origin="132.29167,164.70831"
       starting_point="138.1503,164.70831"
       effect="copy_rotate" />
    <clipPath
       clipPathUnits="userSpaceOnUse"
       id="clipPath925">
      <g
         inkscape:label="Clip"
         id="use927">
        <path
           style="opacity:1;fill:#79dae0;fill-opacity:1;fill-rule:nonzero;stroke:none;stroke-width:0.5985803;stroke-linecap:round;stroke-linejoin:miter;stroke-miterlimit:4;stroke-dasharray:none;stroke-opacity:1"
           d="M 132.29166,39.22037 A 125.48808,125.48808 0 0 1 257.77961,164.70832 125.48808,125.48808 0 0 1 132.29166,290.19626 Z"
           id="path996"
           inkscape:connector-curvature="0" />
      </g>
    </clipPath>
    <radialGradient
       inkscape:collect="always"
       xlink:href="#linearGradient832"
       id="radialGradient834"
       cx="132.29167"
       cy="164.70831"
       fx="132.29167"
       fy="164.70831"
       r="75.59523"
       gradientUnits="userSpaceOnUse"
       gradientTransform="matrix(5.9527566,0,0,5.9527566,-287.50007,-480.46847)" />
    <linearGradient
       inkscape:collect="always"
       id="linearGradient832">
      <stop
         style="stop-color:#ca0000;stop-opacity:1"
         offset="0"
         id="stop828" />
      <stop
         style="stop-color:#601010;stop-opacity:1"
         offset="1"
         id="stop830" />
    </linearGradient>
  </defs>
  <sodipodi:namedview
     id="base"
     pagecolor="#ffffff"
     bordercolor="#666666"
     borderopacity="1.0"
     inkscape:pageopacity="0.0"
     inkscape:pageshadow="2"
     inkscape:zoom="0.49497476"
     inkscape:cx="57.390434"
     inkscape:cy="431.25759"
     inkscape:document-units="px"
     inkscape:current-layer="layer1"
     showgrid="false"
     units="px"
     inkscape:window-width="1920"
     inkscape:window-height="1017"
     inkscape:window-x="1912"
     inkscape:window-y="-8"
     inkscape:window-maximized="1"
     inkscape:snap-object-midpoints="true"
     inkscape:lockguides="false"
     inkscape:snap-bbox="true"
     inkscape:snap-bbox-edge-midpoints="true"
     inkscape:snap-bbox-midpoints="true" />
  <metadata
     id="metadata5">
    <rdf:RDF>
      <cc:Work
         rdf:about="">
        <dc:format>image/svg+xml</dc:format>
        <dc:type
           rdf:resource="http://purl.org/dc/dcmitype/StillImage" />
        <dc:title></dc:title>
      </cc:Work>
    </rdf:RDF>
  </metadata>
  <g
     inkscape:label="Ebene 1"
     inkscape:groupmode="layer"
     id="layer1"
     transform="translate(0,-32.41665)">
    <path
       style="opacity:1;fill:url(#radialGradient834);fill-opacity:1;fill-rule:nonzero;stroke:none;stroke-width:2.1465075;stroke-linecap:round;stroke-linejoin:miter;stroke-miterlimit:4;stroke-dasharray:none;stroke-opacity:1"
       d="M 500,50 A 449.99999,449.99999 0 0 0 50,500 449.99999,449.99999 0 0 0 500,950 450,450 0 0 0 950,500 450,450 0 0 0 500,50 Z"
       transform="matrix(0.26458333,0,0,0.26458333,0,32.41665)"
       id="circle819"
       inkscape:connector-curvature="0" />
    <circle
       style="opacity:1;fill:none;fill-opacity:1;fill-rule:nonzero;stroke:#000000;stroke-width:10.00880909;stroke-linecap:round;stroke-linejoin:miter;stroke-miterlimit:4;stroke-dasharray:none;stroke-opacity:1"
       id="path1076"
       cx="132.29167"
       cy="164.70831"
       r="120.10571" />
  </g>
</svg>
