{
    "parameters": {
        "allowExtension": false
    },
    "definition": {
        "ref": {
            "@type": "String",
            "optional": false
        },
        "item": {
            "@type": "String",
            "optional": false
        },
        "price": {
            "@type": "Number",
            "optional": false,
            "default": 0,
            "decimalPlaces": 0
        }
    }
}